1 10 20
100 200 125
201 210 89
900 1000 174
1000 1234 182
1212 4567 238
16081 476542 449
655555 948227 525
818644 821234 450
341000 987645 525
110000 211742 383
27234 852779 525
239728 769212 509
365224 439781 449
286277 343117 389
508102 823641 509
284569 524746 470
379724 442726 449
512200 721644 509
918974 991560 507
122348 436065 449
493297 581683 470
452710 696841 509
53552 74895 335
354 667 145
238 996 179
1990 2917 209
94310 198489 383
31308 190796 383
440985 458270 387
111111 222222 386
12345 67890 340
113382 113385 248
26081 576542 470
755555 848227 525
718644 721234 411
441000 687645 509
10000 11742 268
7234 52779 340
139728 369212 443
265224 339781 407
186277 243117 443
508102 723641 509
24569 54746 340
9724 42726 324
112200 421644 449
818974 991560 525
122341 436065 449
493397 581683 470
472710 696841 509
3552 64895 340
1354 1667 180
2238 2996 217
13990 23917 282
194310 198489 360
11308 90796 351
240985 458270 449
211111 222222 386
12345 67890 340
123382 153385 375
9174 9560 260
12238 46065 324
49327 51683 309
45271 66841 340
535532 743895 509
3541 6671 262
2381 9961 262
1990 2917 209
94310 198489 383
111308 190796 383
444985 458270 387
121111 222222 386
22345 67890 340
113381 113385 248
26081 76542 340
555555 648227 509
618644 721234 509
541000 787645 509
10001 12742 268
7234 12779 268
539728 669212 509
935224 939781 507
86277 143117 375
608102 723641 509
34579 54746 340
11724 42726 324
312200 421644 449
918974 991560 507
222341 436065 449
513397 581683 452
572710 696841 509
22552 64895 340
1354 2667 209
2238 3996 238
13990 93917 351
94310 98489 328
71308 90796 351
340985 458270 449
311111 322222 384
12345 77890 351
723382 753385 424
1101 1201 182
2210 2211 95
3900 31000 308
41000 41234 244
51212 54567 340
516081 676542 509
255555 548227 470
718644 721234 411
841000 887645 445
111000 111742 323
27234 52779 340
23978 69212 340
36524 43781 306
28627 43117 324
50812 83641 351
28459 54746 340
37924 42726 306
51220 71644 340
21894 91560 351
22348 36065 324
97 581683 470
52710 696841 509
2 74895 340
4 667 145
8 996 179
10 2917 209
124310 198489 383
3138 3796 238
40985 458270 449
1 222222 386
12345 67899 340
13182 113385 354
46081 576542 470
55555 848227 525
708644 721234 411
141000 687645 509
1000 11742 268
17234 52779 340
39728 69212 340
25224 39781 324
18677 24317 282
50812 72341 340
2469 5446 238
924 4226 238
11200 42644 324
81874 99150 333
12241 43605 324
49397 58683 340
47270 66841 340
352 6495 262
134 166 117
228 996 179
1990 2397 183
19310 19889 274
1108 9096 262
24085 45870 324
21111 22222 269
1235 6790 262
12382 15335 276
914 950 174
1228 4665 238
497 5183 238
457 6641 262
53532 74895 335
351 661 145
231 991 179
190 217 120
9431 19849 279
11108 10796 268
44485 45270 314
12111 22222 279
2235 6780 262
113381 213385 383
26081 46542 324
525555 548227 452
518644 621234 452
241000 387645 441
18001 19742 274
72340 82779 351
53728 669212 509
93524 939781 525
8677 143117 375
60802 723641 509
3459 54746 340
1124 42726 324
32200 421644 449
18974 991560 525
22341 436065 449
51397 581683 470
57710 696841 509
2552 64895 340
354 2667 209
21238 31996 308
113990 193917 383
941310 918489 507
711308 91796 509
34095 458270 449
31111 32222 285
1245 7780 262
1998 2019 144
